EPID674 Epidemiologic Data Analysis using R
…
df_regressions_i

# A tibble: 225 × 7
   celltype_codename chemical_codename term   estimate std.e…¹ stati…²   p.value
   <chr>             <chr>             <chr>     <dbl>   <dbl>   <dbl>     <dbl>
 1 LBDLYMNO          LBXBCD            (Inte…  2.54    6.77e-2 37.5    4.11e-276
 2 LBDLYMNO          LBXBCD            chem_…  0.00650 1.48e-2  0.438  6.61e-  1
 3 LBDLYMNO          LBXBCD            RIDAG… -0.00691 8.22e-4 -8.41   5.04e- 17
 4 LBDLYMNO          LBXBCD            race_…  0.127   5.17e-2  2.46   1.39e-  2
 5 LBDLYMNO          LBXBCD            race_… -0.0273  4.46e-2 -0.612  5.41e-  1
 6 LBDLYMNO          LBXBCD            race_… -0.00171 6.31e-2 -0.0270 9.78e-  1
 7 LBDLYMNO          LBXBCD            race_…  0.0364  4.66e-2  0.780  4.35e-  1
 8 LBDLYMNO          LBXBCD            sexFe…  0.0743  3.29e-2  2.26   2.42e-  2
 9 LBDLYMNO          LBXBCD            INDFM…  0.00732 1.06e-2  0.692  4.89e-  1
10 LBDLYMNO          LBXBPB            (Inte…  2.52    5.50e-2 45.8    0        
# … with 215 more rows, and abbreviated variable names ¹​std.error, ²​statistic
